<svg width="55" height="68" viewBox="0 0 55 68" fill="none" xmlns="http://www.w3.org/2000/svg">
<path d="M20.4522 28.5161C21.9465 28.5161 23.1631 27.2866 23.1631 25.7742C23.1631 24.2617 21.9465 23.0322 20.4522 23.0322C18.9579 23.0322 17.7412 24.2617 17.7412 25.7742C17.7412 27.2866 18.9579 28.5161 20.4522 28.5161ZM20.4522 25.2258C20.7515 25.2258 20.9944 25.4725 20.9944 25.7742C20.9944 26.0758 20.7515 26.3225 20.4522 26.3225C20.1529 26.3225 19.91 26.0758 19.91 25.7742C19.91 25.4725 20.1529 25.2258 20.4522 25.2258Z" fill="#2D7192"/>
<path d="M34.5489 28.5161C36.0431 28.5161 37.2598 27.2866 37.2598 25.7742C37.2598 24.2617 36.0431 23.0322 34.5489 23.0322C33.0546 23.0322 31.8379 24.2617 31.8379 25.7742C31.8379 27.2866 33.0546 28.5161 34.5489 28.5161ZM34.5489 25.2258C34.8481 25.2258 35.091 25.4725 35.091 25.7742C35.091 26.0758 34.8481 26.3225 34.5489 26.3225C34.2496 26.3225 34.0067 26.0758 34.0067 25.7742C34.0067 25.4725 34.2496 25.2258 34.5489 25.2258Z" fill="#2D7192"/>
<path d="M20.994 31.8062H18.8252C18.8252 36.644 22.7171 40.5803 27.5003 40.5803C32.2835 40.5803 36.1754 36.644 36.1754 31.8062H34.0066C34.0066 35.4354 31.0885 38.3868 27.5003 38.3868C23.912 38.3868 20.994 35.4354 20.994 31.8062Z" fill="#2D7192"/>
<path d="M43.7664 14.2578H41.5977V16.4514H43.7664V14.2578Z" fill="#2D7192"/>
<path d="M51.4248 56.4301C49.9131 51.5363 45.6992 47.8709 40.6894 47.0911L40.5072 47.0626C40.4844 45.2551 39.8273 43.5233 38.6735 42.1644C40.4682 40.1858 41.7651 37.74 42.3409 35.02C43.2767 34.8884 44.1301 34.5221 44.8502 33.9715V47.1613H47.0189V24.129H44.8502V25.2543C44.2169 24.7695 43.4871 24.4065 42.6814 24.2409V23.0323C43.7322 23.0323 44.6842 22.5266 45.2828 21.7074C46.2805 21.8587 47.3052 21.5352 48.0491 20.7828C48.7919 20.0315 49.1118 18.9939 48.9621 17.986C49.7733 17.3806 50.2721 16.4176 50.2721 15.3548C50.2721 14.2921 49.7733 13.3291 48.9621 12.7237C49.1118 11.7157 48.7919 10.6793 48.0491 9.9269C47.3052 9.17452 46.2826 8.84987 45.2828 9.00232C44.6842 8.18303 43.7322 7.67742 42.6814 7.67742C41.6306 7.67742 40.6785 8.18303 40.0799 9.00232C39.0801 8.84768 38.0565 9.17452 37.3137 9.9269C36.5709 10.6793 36.251 11.7157 36.4006 12.7237C35.5895 13.3291 35.0907 14.2921 35.0907 15.3548C35.0907 15.9328 35.249 16.4746 35.5136 16.9517C34.6396 16.4308 33.822 15.8122 33.1074 15.0894L31.8375 13.8029L31.0698 14.5794C28.4792 17.2018 25.033 18.6452 21.3656 18.6452H12.3186V24.2398C11.5129 24.4065 10.7831 24.7685 10.1498 25.2532V19.7419C10.1498 10.0662 17.9336 2.19355 27.5 2.19355C32.1433 2.19355 36.5069 4.02516 39.7861 7.35168L41.3216 5.80303C37.6336 2.06084 32.7246 0 27.5 0C16.7375 0 7.98107 8.85645 7.98107 19.7419V47.1613H10.1498V33.9715C10.8699 34.5232 11.7233 34.8884 12.6591 35.02C13.2349 37.74 14.5308 40.1847 16.3265 42.1644C15.1738 43.5233 14.5167 45.2562 14.4928 47.0626L14.3106 47.0911C9.29968 47.8709 5.08685 51.5363 3.57522 56.4301L0 68H27.5H55L51.4248 56.4301ZM32.6053 46.795C31.8397 48.9819 29.7881 50.4516 27.5 50.4516C25.2119 50.4516 23.1603 48.9819 22.3947 46.795L20.3496 47.5276C21.0772 49.6049 22.643 51.1996 24.57 52.0233C23.8066 52.4225 22.9543 52.6452 22.0781 52.6452C19.0884 52.6452 16.6562 50.1851 16.6562 47.1613C16.6562 45.8857 17.104 44.6606 17.8945 43.6856C20.5133 45.8561 23.8586 47.1613 27.5 47.1613C31.1414 47.1613 34.4867 45.8561 37.1055 43.6856C37.896 44.6606 38.3438 45.8857 38.3438 47.1613C38.3438 50.1851 35.9116 52.6452 32.9219 52.6452C32.0457 52.6452 31.1934 52.4225 30.4311 52.0222C32.358 51.1985 33.9239 49.6038 34.6515 47.5265L32.6053 46.795ZM44.8502 29.6129C44.8502 31.0574 43.9187 32.2748 42.6358 32.7157C42.6532 32.413 42.6814 32.1135 42.6814 31.8065V26.5244C43.9404 26.9785 44.8502 28.1849 44.8502 29.6129ZM38.0261 14.3173L39.2721 13.9268L38.6637 12.7599C38.4404 12.3299 38.5141 11.8166 38.847 11.4788C39.1821 11.1399 39.6896 11.0665 40.1136 11.2924L41.2673 11.9077L41.6545 10.6486C41.7976 10.1825 42.2097 9.87097 42.6814 9.87097C43.1531 9.87097 43.5652 10.1825 43.7072 10.6464L44.0943 11.9055L45.2481 11.2902C45.6732 11.0643 46.1807 11.1377 46.5147 11.4766C46.8476 11.8145 46.9213 12.3277 46.6979 12.7577L46.0896 13.9246L47.3356 14.3151C47.7953 14.461 48.1033 14.8777 48.1033 15.3548C48.1033 15.8319 47.7953 16.2487 47.3377 16.3924L46.0929 16.7828L46.699 17.9498C46.9224 18.3786 46.8487 18.893 46.5158 19.2308C46.1818 19.5697 45.6732 19.6432 45.2492 19.4173L44.0954 18.802L43.7083 20.0611C43.5652 20.5272 43.1531 20.8387 42.6814 20.8387C42.2097 20.8387 41.7976 20.5272 41.6556 20.0633L41.2684 18.8042L40.1146 19.4195C39.6907 19.6454 39.1821 19.5719 38.8481 19.233C38.5152 18.8952 38.4414 18.3808 38.6648 17.952L39.271 16.785L38.0261 16.3946C37.5674 16.2487 37.2595 15.8319 37.2595 15.3548C37.2595 14.8777 37.5674 14.461 38.0261 14.3173ZM10.1498 29.6129C10.1498 28.1849 11.0596 26.9785 12.3186 26.5244V31.8065C12.3186 32.1135 12.3468 32.413 12.3642 32.7157C11.0813 32.2748 10.1498 31.0574 10.1498 29.6129ZM14.4874 20.8387H21.3656C25.2499 20.8387 28.9195 19.4403 31.8148 16.8783C33.2212 18.2317 34.9161 19.2879 36.7422 19.9624C36.8929 20.2574 37.0729 20.5393 37.3148 20.7839C38.0587 21.5363 39.0823 21.8598 40.081 21.7085C40.2079 21.8817 40.3575 22.0331 40.5137 22.1757V31.8065C40.5137 39.0638 34.6765 44.9677 27.5011 44.9677C20.3257 44.9677 14.4885 39.0638 14.4885 31.8065V20.8387H14.4874ZM12.4325 65.8064L13.3976 56.0452L11.2396 55.8269L10.2529 65.8075H2.94953L5.64422 57.0849C6.9097 52.9863 10.4415 49.9142 14.6392 49.2605L14.7769 49.2397C15.6759 52.4642 18.6048 54.8387 22.0781 54.8387C24.0679 54.8387 25.971 54.0359 27.3851 52.6364C27.4241 52.6364 27.461 52.6452 27.5 52.6452C27.539 52.6452 27.5759 52.6364 27.6149 52.6364C29.029 54.0359 30.9321 54.8387 32.9219 54.8387C36.3952 54.8387 39.3241 52.4642 40.2231 49.2386L40.3608 49.2594C44.5585 49.9131 48.0892 52.9841 49.3558 57.0838L52.0505 65.8064H44.7471L43.7603 55.8258L41.6024 56.0441L41.9169 59.2247H35.0907V61.4183H42.1338L42.5675 65.8054H27.5H12.4325V65.8064Z" fill="#2D7192"/>
<path d="M32.9227 59.2261H30.7539V61.4196H32.9227V59.2261Z" fill="#2D7192"/>
</svg>
