<svg width="14" height="18" viewBox="0 0 14 18" fill="none" xmlns="http://www.w3.org/2000/svg">
<path d="M7 9.87305L3.01562 13.8574C2.87891 13.9941 2.71289 14.0625 2.51758 14.0625C2.32227 14.0625 2.15625 13.9941 2.01953 13.8574L1.375 13.1836C1.23828 13.0469 1.16992 12.8809 1.16992 12.6855C1.16992 12.4902 1.23828 12.3242 1.375 12.1875L4.1875 9.375L1.375 6.5625C1.23828 6.42578 1.16992 6.25977 1.16992 6.06445C1.16992 5.86914 1.23828 5.70313 1.375 5.56641L2.01953 4.89258C2.15625 4.75586 2.32227 4.6875 2.51758 4.6875C2.71289 4.6875 2.87891 4.75586 3.01562 4.89258L7 8.87695C7.13672 9.01367 7.20508 9.17969 7.20508 9.375C7.20508 9.57031 7.13672 9.73633 7 9.87305ZM12.625 8.87695L8.64062 4.89258C8.50391 4.75586 8.33789 4.6875 8.14258 4.6875C7.94727 4.6875 7.78125 4.75586 7.64453 4.89258L7 5.56641C6.86328 5.70313 6.79492 5.86914 6.79492 6.06445C6.79492 6.25977 6.86328 6.41602 7 6.5332L9.8125 9.375L7 12.1875C6.86328 12.3242 6.79492 12.4902 6.79492 12.6855C6.79492 12.8809 6.86328 13.0469 7 13.1836L7.64453 13.8574C7.78125 13.9941 7.94727 14.0625 8.14258 14.0625C8.33789 14.0625 8.50391 13.9941 8.64062 13.8574L12.625 9.87305C12.7617 9.73633 12.8301 9.57031 12.8301 9.375C12.8301 9.17969 12.7617 9.01367 12.625 8.87695Z" fill="#CADAE4"/>
</svg>
